{
    "doubles": [],
    "floats": [
        "dips20211116_pu",
        "dips20211116_pb",
        "dips20211116_pc"
    ],
    "chars": [],
    "jet_int_variables": [
        "HadronConeExclTruthLabelID",
        "HadronConeExclExtendedTruthLabelID"
    ],
    "jet_floats": [
        "pt",
        "eta",
        "mass",
        "energy",
        "relativeDeltaRToVRJet",
        "deltaRToVRJet"
    ]
}

